{
  "count": 1406,
  "next": "https://api.octopus.energy/v1/electricity-meter-points/1012806962585/meters/Z15N213823/consumption/?page=2&page_size=100&period_from=2024-11-30T17%3A51%3A27.408332200%2B01%3A00&period_to=2024-12-30T17%3A51%3A27.418868%2B01%3A00",
  "previous": null,
  "results": [
    {
      "consumption": 0.028,
      "interval_start": "2024-12-29T23:30:00Z",
      "interval_end": "2024-12-30T00:00:00Z"
    },
    {
      "consumption": 0.027,
      "interval_start": "2024-12-29T23:00:00Z",
      "interval_end": "2024-12-29T23:30:00Z"
    },
    {
      "consumption": 0.038,
      "interval_start": "2024-12-29T22:30:00Z",
      "interval_end": "2024-12-29T23:00:00Z"
    },
    {
      "consumption": 0.036,
      "interval_start": "2024-12-29T22:00:00Z",
      "interval_end": "2024-12-29T22:30:00Z"
    },
    {
      "consumption": 0.027,
      "interval_start": "2024-12-29T21:30:00Z",
      "interval_end": "2024-12-29T22:00:00Z"
    },
    {
      "consumption": 0.033,
      "interval_start": "2024-12-29T21:00:00Z",
      "interval_end": "2024-12-29T21:30:00Z"
    },
    {
      "consumption": 0.027,
      "interval_start": "2024-12-29T20:30:00Z",
      "interval_end": "2024-12-29T21:00:00Z"
    },
    {
      "consumption": 0.028,
      "interval_start": "2024-12-29T20:00:00Z",
      "interval_end": "2024-12-29T20:30:00Z"
    },
    {
      "consumption": 0.032,
      "interval_start": "2024-12-29T19:30:00Z",
      "interval_end": "2024-12-29T20:00:00Z"
    },
    {
      "consumption": 0.027,
      "interval_start": "2024-12-29T19:00:00Z",
      "interval_end": "2024-12-29T19:30:00Z"
    },
    {
      "consumption": 0.029,
      "interval_start": "2024-12-29T18:30:00Z",
      "interval_end": "2024-12-29T19:00:00Z"
    },
    {
      "consumption": 0.031,
      "interval_start": "2024-12-29T18:00:00Z",
      "interval_end": "2024-12-29T18:30:00Z"
    },
    {
      "consumption": 0.028,
      "interval_start": "2024-12-29T17:30:00Z",
      "interval_end": "2024-12-29T18:00:00Z"
    },
    {
      "consumption": 0.029,
      "interval_start": "2024-12-29T17:00:00Z",
      "interval_end": "2024-12-29T17:30:00Z"
    },
    {
      "consumption": 0.031,
      "interval_start": "2024-12-29T16:30:00Z",
      "interval_end": "2024-12-29T17:00:00Z"
    },
    {
      "consumption": 0.028,
      "interval_start": "2024-12-29T16:00:00Z",
      "interval_end": "2024-12-29T16:30:00Z"
    },
    {
      "consumption": 0.028,
      "interval_start": "2024-12-29T15:30:00Z",
      "interval_end": "2024-12-29T16:00:00Z"
    },
    {
      "consumption": 0.032,
      "interval_start": "2024-12-29T15:00:00Z",
      "interval_end": "2024-12-29T15:30:00Z"
    },
    {
      "consumption": 0.028,
      "interval_start": "2024-12-29T14:30:00Z",
      "interval_end": "2024-12-29T15:00:00Z"
    },
    {
      "consumption": 0.028,
      "interval_start": "2024-12-29T14:00:00Z",
      "interval_end": "2024-12-29T14:30:00Z"
    },
    {
      "consumption": 0.036,
      "interval_start": "2024-12-29T13:30:00Z",
      "interval_end": "2024-12-29T14:00:00Z"
    },
    {
      "consumption": 0.038,
      "interval_start": "2024-12-29T13:00:00Z",
      "interval_end": "2024-12-29T13:30:00Z"
    },
    {
      "consumption": 0.027,
      "interval_start": "2024-12-29T12:30:00Z",
      "interval_end": "2024-12-29T13:00:00Z"
    },
    {
      "consumption": 0.028,
      "interval_start": "2024-12-29T12:00:00Z",
      "interval_end": "2024-12-29T12:30:00Z"
    },
    {
      "consumption": 0.032,
      "interval_start": "2024-12-29T11:30:00Z",
      "interval_end": "2024-12-29T12:00:00Z"
    },
    {
      "consumption": 0.028,
      "interval_start": "2024-12-29T11:00:00Z",
      "interval_end": "2024-12-29T11:30:00Z"
    },
    {
      "consumption": 0.027,
      "interval_start": "2024-12-29T10:30:00Z",
      "interval_end": "2024-12-29T11:00:00Z"
    },
    {
      "consumption": 0.033,
      "interval_start": "2024-12-29T10:00:00Z",
      "interval_end": "2024-12-29T10:30:00Z"
    },
    {
      "consumption": 0.028,
      "interval_start": "2024-12-29T09:30:00Z",
      "interval_end": "2024-12-29T10:00:00Z"
    },
    {
      "consumption": 0.027,
      "interval_start": "2024-12-29T09:00:00Z",
      "interval_end": "2024-12-29T09:30:00Z"
    },
    {
      "consumption": 0.033,
      "interval_start": "2024-12-29T08:30:00Z",
      "interval_end": "2024-12-29T09:00:00Z"
    },
    {
      "consumption": 0.028,
      "interval_start": "2024-12-29T08:00:00Z",
      "interval_end": "2024-12-29T08:30:00Z"
    },
    {
      "consumption": 0.027,
      "interval_start": "2024-12-29T07:30:00Z",
      "interval_end": "2024-12-29T08:00:00Z"
    },
    {
      "consumption": 0.033,
      "interval_start": "2024-12-29T07:00:00Z",
      "interval_end": "2024-12-29T07:30:00Z"
    },
    {
      "consumption": 0.027,
      "interval_start": "2024-12-29T06:30:00Z",
      "interval_end": "2024-12-29T07:00:00Z"
    },
    {
      "consumption": 0.028,
      "interval_start": "2024-12-29T06:00:00Z",
      "interval_end": "2024-12-29T06:30:00Z"
    },
    {
      "consumption": 0.036,
      "interval_start": "2024-12-29T05:30:00Z",
      "interval_end": "2024-12-29T06:00:00Z"
    },
    {
      "consumption": 0.028,
      "interval_start": "2024-12-29T05:00:00Z",
      "interval_end": "2024-12-29T05:30:00Z"
    },
    {
      "consumption": 0.028,
      "interval_start": "2024-12-29T04:30:00Z",
      "interval_end": "2024-12-29T05:00:00Z"
    },
    {
      "consumption": 0.032,
      "interval_start": "2024-12-29T04:00:00Z",
      "interval_end": "2024-12-29T04:30:00Z"
    },
    {
      "consumption": 0.039,
      "interval_start": "2024-12-29T03:30:00Z",
      "interval_end": "2024-12-29T04:00:00Z"
    },
    {
      "consumption": 0.03,
      "interval_start": "2024-12-29T03:00:00Z",
      "interval_end": "2024-12-29T03:30:00Z"
    },
    {
      "consumption": 0.028,
      "interval_start": "2024-12-29T02:30:00Z",
      "interval_end": "2024-12-29T03:00:00Z"
    },
    {
      "consumption": 0.031,
      "interval_start": "2024-12-29T02:00:00Z",
      "interval_end": "2024-12-29T02:30:00Z"
    },
    {
      "consumption": 0.029,
      "interval_start": "2024-12-29T01:30:00Z",
      "interval_end": "2024-12-29T02:00:00Z"
    },
    {
      "consumption": 0.027,
      "interval_start": "2024-12-29T01:00:00Z",
      "interval_end": "2024-12-29T01:30:00Z"
    },
    {
      "consumption": 0.033,
      "interval_start": "2024-12-29T00:30:00Z",
      "interval_end": "2024-12-29T01:00:00Z"
    },
    {
      "consumption": 0.028,
      "interval_start": "2024-12-29T00:00:00Z",
      "interval_end": "2024-12-29T00:30:00Z"
    },
    {
      "consumption": 0.027,
      "interval_start": "2024-12-28T23:30:00Z",
      "interval_end": "2024-12-29T00:00:00Z"
    },
    {
      "consumption": 0.033,
      "interval_start": "2024-12-28T23:00:00Z",
      "interval_end": "2024-12-28T23:30:00Z"
    },
    {
      "consumption": 0.027,
      "interval_start": "2024-12-28T22:30:00Z",
      "interval_end": "2024-12-28T23:00:00Z"
    },
    {
      "consumption": 0.028,
      "interval_start": "2024-12-28T22:00:00Z",
      "interval_end": "2024-12-28T22:30:00Z"
    },
    {
      "consumption": 0.033,
      "interval_start": "2024-12-28T21:30:00Z",
      "interval_end": "2024-12-28T22:00:00Z"
    },
    {
      "consumption": 0.027,
      "interval_start": "2024-12-28T21:00:00Z",
      "interval_end": "2024-12-28T21:30:00Z"
    },
    {
      "consumption": 0.028,
      "interval_start": "2024-12-28T20:30:00Z",
      "interval_end": "2024-12-28T21:00:00Z"
    },
    {
      "consumption": 0.032,
      "interval_start": "2024-12-28T20:00:00Z",
      "interval_end": "2024-12-28T20:30:00Z"
    },
    {
      "consumption": 0.027,
      "interval_start": "2024-12-28T19:30:00Z",
      "interval_end": "2024-12-28T20:00:00Z"
    },
    {
      "consumption": 0.028,
      "interval_start": "2024-12-28T19:00:00Z",
      "interval_end": "2024-12-28T19:30:00Z"
    },
    {
      "consumption": 0.032,
      "interval_start": "2024-12-28T18:30:00Z",
      "interval_end": "2024-12-28T19:00:00Z"
    },
    {
      "consumption": 0.028,
      "interval_start": "2024-12-28T18:00:00Z",
      "interval_end": "2024-12-28T18:30:00Z"
    },
    {
      "consumption": 0.027,
      "interval_start": "2024-12-28T17:30:00Z",
      "interval_end": "2024-12-28T18:00:00Z"
    },
    {
      "consumption": 0.03,
      "interval_start": "2024-12-28T17:00:00Z",
      "interval_end": "2024-12-28T17:30:00Z"
    },
    {
      "consumption": 0.039,
      "interval_start": "2024-12-28T16:30:00Z",
      "interval_end": "2024-12-28T17:00:00Z"
    },
    {
      "consumption": 0.032,
      "interval_start": "2024-12-28T16:00:00Z",
      "interval_end": "2024-12-28T16:30:00Z"
    },
    {
      "consumption": 0.032,
      "interval_start": "2024-12-28T15:30:00Z",
      "interval_end": "2024-12-28T16:00:00Z"
    },
    {
      "consumption": 0.027,
      "interval_start": "2024-12-28T15:00:00Z",
      "interval_end": "2024-12-28T15:30:00Z"
    },
    {
      "consumption": 0.031,
      "interval_start": "2024-12-28T14:30:00Z",
      "interval_end": "2024-12-28T15:00:00Z"
    },
    {
      "consumption": 0.029,
      "interval_start": "2024-12-28T14:00:00Z",
      "interval_end": "2024-12-28T14:30:00Z"
    },
    {
      "consumption": 0.028,
      "interval_start": "2024-12-28T13:30:00Z",
      "interval_end": "2024-12-28T14:00:00Z"
    },
    {
      "consumption": 0.032,
      "interval_start": "2024-12-28T13:00:00Z",
      "interval_end": "2024-12-28T13:30:00Z"
    },
    {
      "consumption": 0.028,
      "interval_start": "2024-12-28T12:30:00Z",
      "interval_end": "2024-12-28T13:00:00Z"
    },
    {
      "consumption": 0.027,
      "interval_start": "2024-12-28T12:00:00Z",
      "interval_end": "2024-12-28T12:30:00Z"
    },
    {
      "consumption": 0.033,
      "interval_start": "2024-12-28T11:30:00Z",
      "interval_end": "2024-12-28T12:00:00Z"
    },
    {
      "consumption": 0.027,
      "interval_start": "2024-12-28T11:00:00Z",
      "interval_end": "2024-12-28T11:30:00Z"
    },
    {
      "consumption": 0.031,
      "interval_start": "2024-12-28T10:30:00Z",
      "interval_end": "2024-12-28T11:00:00Z"
    },
    {
      "consumption": 0.03,
      "interval_start": "2024-12-28T10:00:00Z",
      "interval_end": "2024-12-28T10:30:00Z"
    },
    {
      "consumption": 0.028,
      "interval_start": "2024-12-28T09:30:00Z",
      "interval_end": "2024-12-28T10:00:00Z"
    },
    {
      "consumption": 0.031,
      "interval_start": "2024-12-28T09:00:00Z",
      "interval_end": "2024-12-28T09:30:00Z"
    },
    {
      "consumption": 0.028,
      "interval_start": "2024-12-28T08:30:00Z",
      "interval_end": "2024-12-28T09:00:00Z"
    },
    {
      "consumption": 0.028,
      "interval_start": "2024-12-28T08:00:00Z",
      "interval_end": "2024-12-28T08:30:00Z"
    },
    {
      "consumption": 0.031,
      "interval_start": "2024-12-28T07:30:00Z",
      "interval_end": "2024-12-28T08:00:00Z"
    },
    {
      "consumption": 0.028,
      "interval_start": "2024-12-28T07:00:00Z",
      "interval_end": "2024-12-28T07:30:00Z"
    },
    {
      "consumption": 0.027,
      "interval_start": "2024-12-28T06:30:00Z",
      "interval_end": "2024-12-28T07:00:00Z"
    },
    {
      "consumption": 0.03,
      "interval_start": "2024-12-28T06:00:00Z",
      "interval_end": "2024-12-28T06:30:00Z"
    },
    {
      "consumption": 0.039,
      "interval_start": "2024-12-28T05:30:00Z",
      "interval_end": "2024-12-28T06:00:00Z"
    },
    {
      "consumption": 0.032,
      "interval_start": "2024-12-28T05:00:00Z",
      "interval_end": "2024-12-28T05:30:00Z"
    },
    {
      "consumption": 0.027,
      "interval_start": "2024-12-28T04:30:00Z",
      "interval_end": "2024-12-28T05:00:00Z"
    },
    {
      "consumption": 0.032,
      "interval_start": "2024-12-28T04:00:00Z",
      "interval_end": "2024-12-28T04:30:00Z"
    },
    {
      "consumption": 0.028,
      "interval_start": "2024-12-28T03:30:00Z",
      "interval_end": "2024-12-28T04:00:00Z"
    },
    {
      "consumption": 0.028,
      "interval_start": "2024-12-28T03:00:00Z",
      "interval_end": "2024-12-28T03:30:00Z"
    },
    {
      "consumption": 0.032,
      "interval_start": "2024-12-28T02:30:00Z",
      "interval_end": "2024-12-28T03:00:00Z"
    },
    {
      "consumption": 0.028,
      "interval_start": "2024-12-28T02:00:00Z",
      "interval_end": "2024-12-28T02:30:00Z"
    },
    {
      "consumption": 0.027,
      "interval_start": "2024-12-28T01:30:00Z",
      "interval_end": "2024-12-28T02:00:00Z"
    },
    {
      "consumption": 0.032,
      "interval_start": "2024-12-28T01:00:00Z",
      "interval_end": "2024-12-28T01:30:00Z"
    },
    {
      "consumption": 0.028,
      "interval_start": "2024-12-28T00:30:00Z",
      "interval_end": "2024-12-28T01:00:00Z"
    },
    {
      "consumption": 0.027,
      "interval_start": "2024-12-28T00:00:00Z",
      "interval_end": "2024-12-28T00:30:00Z"
    },
    {
      "consumption": 0.033,
      "interval_start": "2024-12-27T23:30:00Z",
      "interval_end": "2024-12-28T00:00:00Z"
    },
    {
      "consumption": 0.028,
      "interval_start": "2024-12-27T23:00:00Z",
      "interval_end": "2024-12-27T23:30:00Z"
    },
    {
      "consumption": 0.028,
      "interval_start": "2024-12-27T22:30:00Z",
      "interval_end": "2024-12-27T23:00:00Z"
    },
    {
      "consumption": 0.031,
      "interval_start": "2024-12-27T22:00:00Z",
      "interval_end": "2024-12-27T22:30:00Z"
    }
  ]
}
